INFO	[2014-06-11 15:14:02:976] <23705> START INIPHP securepay (V5034-120709)(OS:Linux2.6.32-358.11.1.el6.i686,PHP:5.2.17)
DEBUG	[2014-06-11 15:14:02:976] <23705> inipayhome:/home/clair/html/INIpay50
DEBUG	[2014-06-11 15:14:02:976] <23705> type:securepay
DEBUG	[2014-06-11 15:14:02:976] <23705> pgid:INIphp
DEBUG	[2014-06-11 15:14:02:976] <23705> subpgip:203.238.3.10
DEBUG	[2014-06-11 15:14:02:976] <23705> admin:
DEBUG	[2014-06-11 15:14:02:976] <23705> debug:true
DEBUG	[2014-06-11 15:14:02:976] <23705> uid:
DEBUG	[2014-06-11 15:14:02:976] <23705> goodname:
DEBUG	[2014-06-11 15:14:02:976] <23705> currency:
DEBUG	[2014-06-11 15:14:02:976] <23705> mid:
DEBUG	[2014-06-11 15:14:02:976] <23705> rn:
DEBUG	[2014-06-11 15:14:02:976] <23705> price:
DEBUG	[2014-06-11 15:14:02:976] <23705> enctype:
DEBUG	[2014-06-11 15:14:02:976] <23705> buyername:
DEBUG	[2014-06-11 15:14:02:976] <23705> buyertel:
DEBUG	[2014-06-11 15:14:02:976] <23705> buyeremail:
DEBUG	[2014-06-11 15:14:02:976] <23705> paymethod:
DEBUG	[2014-06-11 15:14:02:976] <23705> encrypted:
DEBUG	[2014-06-11 15:14:02:976] <23705> sessionkey:
DEBUG	[2014-06-11 15:14:02:976] <23705> url:http://www.your_domain.co.kr
DEBUG	[2014-06-11 15:14:02:976] <23705> cardcode:
DEBUG	[2014-06-11 15:14:02:976] <23705> parentemail:
DEBUG	[2014-06-11 15:14:02:976] <23705> recvname:
DEBUG	[2014-06-11 15:14:02:976] <23705> recvtel:
DEBUG	[2014-06-11 15:14:02:976] <23705> recvaddr:
DEBUG	[2014-06-11 15:14:02:976] <23705> recvpostnum:
DEBUG	[2014-06-11 15:14:02:976] <23705> recvmsg:
DEBUG	[2014-06-11 15:14:02:976] <23705> joincard:
DEBUG	[2014-06-11 15:14:02:976] <23705> joinexpire:
DEBUG	[2014-06-11 15:14:02:976] <23705> id_customer:
ERROR	[2014-06-11 15:14:02:985] <23705> 필수항목(mid)이 누락되었습니다.
INFO	[2014-06-11 15:14:02:985] <23705> END securepay [TX9202|필수항목(mid)이 누락되었습니다.] Laptime:[0.01sec]
INFO	[2014-06-11 15:14:02:985] <23705> ===============================================================
INFO	[2014-06-11 15:15:11:255] <23947> START INIPHP securepay (V5034-120709)(OS:Linux2.6.32-358.11.1.el6.i686,PHP:5.2.17)
DEBUG	[2014-06-11 15:15:11:255] <23947> inipayhome:/home/clair/html/INIpay50
DEBUG	[2014-06-11 15:15:11:255] <23947> type:securepay
DEBUG	[2014-06-11 15:15:11:255] <23947> pgid:INIphp
DEBUG	[2014-06-11 15:15:11:255] <23947> subpgip:203.238.3.10
DEBUG	[2014-06-11 15:15:11:255] <23947> admin:
DEBUG	[2014-06-11 15:15:11:255] <23947> debug:true
DEBUG	[2014-06-11 15:15:11:255] <23947> uid:
DEBUG	[2014-06-11 15:15:11:255] <23947> goodname:
DEBUG	[2014-06-11 15:15:11:255] <23947> currency:
DEBUG	[2014-06-11 15:15:11:255] <23947> mid:
DEBUG	[2014-06-11 15:15:11:255] <23947> rn:
DEBUG	[2014-06-11 15:15:11:255] <23947> price:
DEBUG	[2014-06-11 15:15:11:255] <23947> enctype:
DEBUG	[2014-06-11 15:15:11:255] <23947> buyername:
DEBUG	[2014-06-11 15:15:11:255] <23947> buyertel:
DEBUG	[2014-06-11 15:15:11:255] <23947> buyeremail:
DEBUG	[2014-06-11 15:15:11:255] <23947> paymethod:
DEBUG	[2014-06-11 15:15:11:255] <23947> encrypted:
DEBUG	[2014-06-11 15:15:11:255] <23947> sessionkey:
DEBUG	[2014-06-11 15:15:11:255] <23947> url:http://www.your_domain.co.kr
DEBUG	[2014-06-11 15:15:11:255] <23947> cardcode:
DEBUG	[2014-06-11 15:15:11:255] <23947> parentemail:
DEBUG	[2014-06-11 15:15:11:255] <23947> recvname:
DEBUG	[2014-06-11 15:15:11:255] <23947> recvtel:
DEBUG	[2014-06-11 15:15:11:255] <23947> recvaddr:
DEBUG	[2014-06-11 15:15:11:255] <23947> recvpostnum:
DEBUG	[2014-06-11 15:15:11:255] <23947> recvmsg:
DEBUG	[2014-06-11 15:15:11:255] <23947> joincard:
DEBUG	[2014-06-11 15:15:11:255] <23947> joinexpire:
DEBUG	[2014-06-11 15:15:11:255] <23947> id_customer:
ERROR	[2014-06-11 15:15:11:265] <23947> 필수항목(mid)이 누락되었습니다.
INFO	[2014-06-11 15:15:11:265] <23947> END securepay [TX9202|필수항목(mid)이 누락되었습니다.] Laptime:[0.01sec]
INFO	[2014-06-11 15:15:11:265] <23947> ===============================================================
INFO	[2014-06-11 15:15:28:411] <23983> START INIPHP securepay (V5034-120709)(OS:Linux2.6.32-358.11.1.el6.i686,PHP:5.2.17)
DEBUG	[2014-06-11 15:15:28:411] <23983> inipayhome:/home/clair/html/INIpay50
DEBUG	[2014-06-11 15:15:28:411] <23983> type:securepay
DEBUG	[2014-06-11 15:15:28:411] <23983> pgid:INIphp
DEBUG	[2014-06-11 15:15:28:411] <23983> subpgip:203.238.3.10
DEBUG	[2014-06-11 15:15:28:411] <23983> admin:
DEBUG	[2014-06-11 15:15:28:411] <23983> debug:true
DEBUG	[2014-06-11 15:15:28:411] <23983> uid:
DEBUG	[2014-06-11 15:15:28:411] <23983> goodname:
DEBUG	[2014-06-11 15:15:28:411] <23983> currency:
DEBUG	[2014-06-11 15:15:28:411] <23983> mid:
DEBUG	[2014-06-11 15:15:28:411] <23983> rn:
DEBUG	[2014-06-11 15:15:28:411] <23983> price:
DEBUG	[2014-06-11 15:15:28:411] <23983> enctype:
DEBUG	[2014-06-11 15:15:28:411] <23983> buyername:
DEBUG	[2014-06-11 15:15:28:411] <23983> buyertel:
DEBUG	[2014-06-11 15:15:28:411] <23983> buyeremail:
DEBUG	[2014-06-11 15:15:28:411] <23983> paymethod:
DEBUG	[2014-06-11 15:15:28:411] <23983> encrypted:
DEBUG	[2014-06-11 15:15:28:411] <23983> sessionkey:
DEBUG	[2014-06-11 15:15:28:411] <23983> url:http://www.your_domain.co.kr
DEBUG	[2014-06-11 15:15:28:411] <23983> cardcode:
DEBUG	[2014-06-11 15:15:28:411] <23983> parentemail:
DEBUG	[2014-06-11 15:15:28:411] <23983> recvname:
DEBUG	[2014-06-11 15:15:28:411] <23983> recvtel:
DEBUG	[2014-06-11 15:15:28:411] <23983> recvaddr:
DEBUG	[2014-06-11 15:15:28:411] <23983> recvpostnum:
DEBUG	[2014-06-11 15:15:28:411] <23983> recvmsg:
DEBUG	[2014-06-11 15:15:28:411] <23983> joincard:
DEBUG	[2014-06-11 15:15:28:411] <23983> joinexpire:
DEBUG	[2014-06-11 15:15:28:411] <23983> id_customer:
ERROR	[2014-06-11 15:15:28:419] <23983> 필수항목(mid)이 누락되었습니다.
INFO	[2014-06-11 15:15:28:419] <23983> END securepay [TX9202|필수항목(mid)이 누락되었습니다.] Laptime:[0.01sec]
INFO	[2014-06-11 15:15:28:419] <23983> ===============================================================
INFO	[2014-06-11 15:15:33:821] <24056> START INIPHP securepay (V5034-120709)(OS:Linux2.6.32-358.11.1.el6.i686,PHP:5.2.17)
DEBUG	[2014-06-11 15:15:33:826] <24056> inipayhome:/home/clair/html/INIpay50
DEBUG	[2014-06-11 15:15:33:826] <24056> type:securepay
DEBUG	[2014-06-11 15:15:33:826] <24056> pgid:INIphp
DEBUG	[2014-06-11 15:15:33:826] <24056> subpgip:203.238.3.10
DEBUG	[2014-06-11 15:15:33:826] <24056> admin:
DEBUG	[2014-06-11 15:15:33:826] <24056> debug:true
DEBUG	[2014-06-11 15:15:33:826] <24056> uid:
DEBUG	[2014-06-11 15:15:33:826] <24056> goodname:
DEBUG	[2014-06-11 15:15:33:826] <24056> currency:
DEBUG	[2014-06-11 15:15:33:826] <24056> mid:
DEBUG	[2014-06-11 15:15:33:826] <24056> rn:
DEBUG	[2014-06-11 15:15:33:826] <24056> price:
DEBUG	[2014-06-11 15:15:33:826] <24056> enctype:
DEBUG	[2014-06-11 15:15:33:826] <24056> buyername:
DEBUG	[2014-06-11 15:15:33:826] <24056> buyertel:
DEBUG	[2014-06-11 15:15:33:826] <24056> buyeremail:
DEBUG	[2014-06-11 15:15:33:826] <24056> paymethod:
DEBUG	[2014-06-11 15:15:33:826] <24056> encrypted:
DEBUG	[2014-06-11 15:15:33:826] <24056> sessionkey:
DEBUG	[2014-06-11 15:15:33:826] <24056> url:http://www.your_domain.co.kr
DEBUG	[2014-06-11 15:15:33:826] <24056> cardcode:
DEBUG	[2014-06-11 15:15:33:826] <24056> parentemail:
DEBUG	[2014-06-11 15:15:33:826] <24056> recvname:
DEBUG	[2014-06-11 15:15:33:826] <24056> recvtel:
DEBUG	[2014-06-11 15:15:33:826] <24056> recvaddr:
DEBUG	[2014-06-11 15:15:33:826] <24056> recvpostnum:
DEBUG	[2014-06-11 15:15:33:826] <24056> recvmsg:
DEBUG	[2014-06-11 15:15:33:826] <24056> joincard:
DEBUG	[2014-06-11 15:15:33:826] <24056> joinexpire:
DEBUG	[2014-06-11 15:15:33:826] <24056> id_customer:
ERROR	[2014-06-11 15:15:33:834] <24056> 필수항목(mid)이 누락되었습니다.
INFO	[2014-06-11 15:15:33:834] <24056> END securepay [TX9202|필수항목(mid)이 누락되었습니다.] Laptime:[0.01sec]
INFO	[2014-06-11 15:15:33:835] <24056> ===============================================================
INFO	[2014-06-11 15:15:33:951] <23983> START INIPHP securepay (V5034-120709)(OS:Linux2.6.32-358.11.1.el6.i686,PHP:5.2.17)
DEBUG	[2014-06-11 15:15:33:951] <23983> inipayhome:/home/clair/html/INIpay50
DEBUG	[2014-06-11 15:15:33:951] <23983> type:securepay
DEBUG	[2014-06-11 15:15:33:951] <23983> pgid:INIphp
DEBUG	[2014-06-11 15:15:33:951] <23983> subpgip:203.238.3.10
DEBUG	[2014-06-11 15:15:33:951] <23983> admin:
DEBUG	[2014-06-11 15:15:33:951] <23983> debug:true
DEBUG	[2014-06-11 15:15:33:951] <23983> uid:
DEBUG	[2014-06-11 15:15:33:951] <23983> goodname:
DEBUG	[2014-06-11 15:15:33:951] <23983> currency:
DEBUG	[2014-06-11 15:15:33:951] <23983> mid:
DEBUG	[2014-06-11 15:15:33:951] <23983> rn:
DEBUG	[2014-06-11 15:15:33:951] <23983> price:
DEBUG	[2014-06-11 15:15:33:951] <23983> enctype:
DEBUG	[2014-06-11 15:15:33:951] <23983> buyername:
DEBUG	[2014-06-11 15:15:33:951] <23983> buyertel:
DEBUG	[2014-06-11 15:15:33:951] <23983> buyeremail:
DEBUG	[2014-06-11 15:15:33:951] <23983> paymethod:
DEBUG	[2014-06-11 15:15:33:951] <23983> encrypted:
DEBUG	[2014-06-11 15:15:33:951] <23983> sessionkey:
DEBUG	[2014-06-11 15:15:33:951] <23983> url:http://www.your_domain.co.kr
DEBUG	[2014-06-11 15:15:33:951] <23983> cardcode:
DEBUG	[2014-06-11 15:15:33:951] <23983> parentemail:
DEBUG	[2014-06-11 15:15:33:951] <23983> recvname:
DEBUG	[2014-06-11 15:15:33:951] <23983> recvtel:
DEBUG	[2014-06-11 15:15:33:951] <23983> recvaddr:
DEBUG	[2014-06-11 15:15:33:951] <23983> recvpostnum:
DEBUG	[2014-06-11 15:15:33:951] <23983> recvmsg:
DEBUG	[2014-06-11 15:15:33:951] <23983> joincard:
DEBUG	[2014-06-11 15:15:33:951] <23983> joinexpire:
DEBUG	[2014-06-11 15:15:33:951] <23983> id_customer:
ERROR	[2014-06-11 15:15:33:969] <23983> 필수항목(mid)이 누락되었습니다.
INFO	[2014-06-11 15:15:33:970] <23983> END securepay [TX9202|필수항목(mid)이 누락되었습니다.] Laptime:[0.02sec]
INFO	[2014-06-11 15:15:33:970] <23983> ===============================================================
INFO	[2014-06-11 15:25:16:686] <24969> START INIPHP securepay (V5034-120709)(OS:Linux2.6.32-358.11.1.el6.i686,PHP:5.2.17)
DEBUG	[2014-06-11 15:25:16:686] <24969> inipayhome:/home/clair/html/INIpay50
DEBUG	[2014-06-11 15:25:16:686] <24969> type:securepay
DEBUG	[2014-06-11 15:25:16:686] <24969> pgid:INIphp
DEBUG	[2014-06-11 15:25:16:686] <24969> subpgip:203.238.3.10
DEBUG	[2014-06-11 15:25:16:686] <24969> admin:
DEBUG	[2014-06-11 15:25:16:686] <24969> debug:true
DEBUG	[2014-06-11 15:25:16:686] <24969> uid:
DEBUG	[2014-06-11 15:25:16:686] <24969> goodname:
DEBUG	[2014-06-11 15:25:16:686] <24969> currency:
DEBUG	[2014-06-11 15:25:16:686] <24969> mid:
DEBUG	[2014-06-11 15:25:16:686] <24969> rn:
DEBUG	[2014-06-11 15:25:16:686] <24969> price:
DEBUG	[2014-06-11 15:25:16:686] <24969> enctype:
DEBUG	[2014-06-11 15:25:16:686] <24969> buyername:
DEBUG	[2014-06-11 15:25:16:686] <24969> buyertel:
DEBUG	[2014-06-11 15:25:16:686] <24969> buyeremail:
DEBUG	[2014-06-11 15:25:16:686] <24969> paymethod:
DEBUG	[2014-06-11 15:25:16:686] <24969> encrypted:
DEBUG	[2014-06-11 15:25:16:686] <24969> sessionkey:
DEBUG	[2014-06-11 15:25:16:686] <24969> url:http://www.your_domain.co.kr
DEBUG	[2014-06-11 15:25:16:686] <24969> cardcode:
DEBUG	[2014-06-11 15:25:16:686] <24969> parentemail:
DEBUG	[2014-06-11 15:25:16:686] <24969> recvname:
DEBUG	[2014-06-11 15:25:16:686] <24969> recvtel:
DEBUG	[2014-06-11 15:25:16:686] <24969> recvaddr:
DEBUG	[2014-06-11 15:25:16:686] <24969> recvpostnum:
DEBUG	[2014-06-11 15:25:16:686] <24969> recvmsg:
DEBUG	[2014-06-11 15:25:16:686] <24969> joincard:
DEBUG	[2014-06-11 15:25:16:686] <24969> joinexpire:
DEBUG	[2014-06-11 15:25:16:686] <24969> id_customer:
ERROR	[2014-06-11 15:25:16:695] <24969> 필수항목(mid)이 누락되었습니다.
INFO	[2014-06-11 15:25:16:696] <24969> END securepay [TX9202|필수항목(mid)이 누락되었습니다.] Laptime:[0.01sec]
INFO	[2014-06-11 15:25:16:696] <24969> ===============================================================
INFO	[2014-06-11 15:25:36:114] <24203> START INIPHP securepay (V5034-120709)(OS:Linux2.6.32-358.11.1.el6.i686,PHP:5.2.17)
DEBUG	[2014-06-11 15:25:36:114] <24203> inipayhome:/home/clair/html/INIpay50
DEBUG	[2014-06-11 15:25:36:114] <24203> type:securepay
DEBUG	[2014-06-11 15:25:36:114] <24203> pgid:INIphp
DEBUG	[2014-06-11 15:25:36:114] <24203> subpgip:203.238.3.10
DEBUG	[2014-06-11 15:25:36:114] <24203> admin:
DEBUG	[2014-06-11 15:25:36:114] <24203> debug:true
DEBUG	[2014-06-11 15:25:36:114] <24203> uid:
DEBUG	[2014-06-11 15:25:36:114] <24203> goodname:
DEBUG	[2014-06-11 15:25:36:114] <24203> currency:
DEBUG	[2014-06-11 15:25:36:114] <24203> mid:
DEBUG	[2014-06-11 15:25:36:114] <24203> rn:
DEBUG	[2014-06-11 15:25:36:114] <24203> price:
DEBUG	[2014-06-11 15:25:36:114] <24203> enctype:
DEBUG	[2014-06-11 15:25:36:114] <24203> buyername:
DEBUG	[2014-06-11 15:25:36:114] <24203> buyertel:
DEBUG	[2014-06-11 15:25:36:114] <24203> buyeremail:
DEBUG	[2014-06-11 15:25:36:114] <24203> paymethod:
DEBUG	[2014-06-11 15:25:36:114] <24203> encrypted:
DEBUG	[2014-06-11 15:25:36:114] <24203> sessionkey:
DEBUG	[2014-06-11 15:25:36:114] <24203> url:http://www.your_domain.co.kr
DEBUG	[2014-06-11 15:25:36:114] <24203> cardcode:
DEBUG	[2014-06-11 15:25:36:114] <24203> parentemail:
DEBUG	[2014-06-11 15:25:36:114] <24203> recvname:
DEBUG	[2014-06-11 15:25:36:114] <24203> recvtel:
DEBUG	[2014-06-11 15:25:36:114] <24203> recvaddr:
DEBUG	[2014-06-11 15:25:36:114] <24203> recvpostnum:
DEBUG	[2014-06-11 15:25:36:114] <24203> recvmsg:
DEBUG	[2014-06-11 15:25:36:114] <24203> joincard:
DEBUG	[2014-06-11 15:25:36:114] <24203> joinexpire:
DEBUG	[2014-06-11 15:25:36:114] <24203> id_customer:
ERROR	[2014-06-11 15:25:36:122] <24203> 필수항목(mid)이 누락되었습니다.
INFO	[2014-06-11 15:25:36:122] <24203> END securepay [TX9202|필수항목(mid)이 누락되었습니다.] Laptime:[0.01sec]
INFO	[2014-06-11 15:25:36:122] <24203> ===============================================================
INFO	[2014-06-11 15:27:53:250] <25473> START INIPHP securepay (V5034-120709)(OS:Linux2.6.32-358.11.1.el6.i686,PHP:5.2.17)
DEBUG	[2014-06-11 15:27:53:250] <25473> inipayhome:/home/clair/html/INIpay50
DEBUG	[2014-06-11 15:27:53:250] <25473> type:securepay
DEBUG	[2014-06-11 15:27:53:250] <25473> pgid:INIphp
DEBUG	[2014-06-11 15:27:53:250] <25473> subpgip:203.238.3.10
DEBUG	[2014-06-11 15:27:53:250] <25473> admin:
DEBUG	[2014-06-11 15:27:53:250] <25473> debug:true
DEBUG	[2014-06-11 15:27:53:250] <25473> uid:
DEBUG	[2014-06-11 15:27:53:250] <25473> goodname:
DEBUG	[2014-06-11 15:27:53:250] <25473> currency:
DEBUG	[2014-06-11 15:27:53:250] <25473> mid:
DEBUG	[2014-06-11 15:27:53:250] <25473> rn:
DEBUG	[2014-06-11 15:27:53:250] <25473> price:
DEBUG	[2014-06-11 15:27:53:250] <25473> enctype:
DEBUG	[2014-06-11 15:27:53:250] <25473> buyername:
DEBUG	[2014-06-11 15:27:53:250] <25473> buyertel:
DEBUG	[2014-06-11 15:27:53:250] <25473> buyeremail:
DEBUG	[2014-06-11 15:27:53:250] <25473> paymethod:
DEBUG	[2014-06-11 15:27:53:250] <25473> encrypted:
DEBUG	[2014-06-11 15:27:53:250] <25473> sessionkey:
DEBUG	[2014-06-11 15:27:53:250] <25473> url:http://www.your_domain.co.kr
DEBUG	[2014-06-11 15:27:53:250] <25473> cardcode:
DEBUG	[2014-06-11 15:27:53:250] <25473> parentemail:
DEBUG	[2014-06-11 15:27:53:250] <25473> recvname:
DEBUG	[2014-06-11 15:27:53:250] <25473> recvtel:
DEBUG	[2014-06-11 15:27:53:250] <25473> recvaddr:
DEBUG	[2014-06-11 15:27:53:250] <25473> recvpostnum:
DEBUG	[2014-06-11 15:27:53:250] <25473> recvmsg:
DEBUG	[2014-06-11 15:27:53:250] <25473> joincard:
DEBUG	[2014-06-11 15:27:53:250] <25473> joinexpire:
DEBUG	[2014-06-11 15:27:53:250] <25473> id_customer:
ERROR	[2014-06-11 15:27:53:259] <25473> 필수항목(mid)이 누락되었습니다.
INFO	[2014-06-11 15:27:53:259] <25473> END securepay [TX9202|필수항목(mid)이 누락되었습니다.] Laptime:[0.01sec]
INFO	[2014-06-11 15:27:53:259] <25473> ===============================================================
INFO	[2014-06-11 15:46:09:600] <4991> START INIPHP securepay (V5034-120709)(OS:Linux2.6.32-358.11.1.el6.i686,PHP:5.2.17)
DEBUG	[2014-06-11 15:46:09:606] <4991> inipayhome:/home/clair/html/INIpay50
DEBUG	[2014-06-11 15:46:09:606] <4991> type:securepay
DEBUG	[2014-06-11 15:46:09:606] <4991> pgid:INIphp
DEBUG	[2014-06-11 15:46:09:606] <4991> subpgip:203.238.3.10
DEBUG	[2014-06-11 15:46:09:606] <4991> admin:
DEBUG	[2014-06-11 15:46:09:606] <4991> debug:true
DEBUG	[2014-06-11 15:46:09:606] <4991> uid:
DEBUG	[2014-06-11 15:46:09:606] <4991> goodname:
DEBUG	[2014-06-11 15:46:09:606] <4991> currency:
DEBUG	[2014-06-11 15:46:09:606] <4991> mid:
DEBUG	[2014-06-11 15:46:09:606] <4991> rn:
DEBUG	[2014-06-11 15:46:09:606] <4991> price:
DEBUG	[2014-06-11 15:46:09:606] <4991> enctype:
DEBUG	[2014-06-11 15:46:09:606] <4991> buyername:
DEBUG	[2014-06-11 15:46:09:606] <4991> buyertel:
DEBUG	[2014-06-11 15:46:09:606] <4991> buyeremail:
DEBUG	[2014-06-11 15:46:09:606] <4991> paymethod:
DEBUG	[2014-06-11 15:46:09:606] <4991> encrypted:
DEBUG	[2014-06-11 15:46:09:606] <4991> sessionkey:
DEBUG	[2014-06-11 15:46:09:606] <4991> url:http://www.your_domain.co.kr
DEBUG	[2014-06-11 15:46:09:606] <4991> cardcode:
DEBUG	[2014-06-11 15:46:09:606] <4991> parentemail:
DEBUG	[2014-06-11 15:46:09:606] <4991> recvname:
DEBUG	[2014-06-11 15:46:09:606] <4991> recvtel:
DEBUG	[2014-06-11 15:46:09:606] <4991> recvaddr:
DEBUG	[2014-06-11 15:46:09:606] <4991> recvpostnum:
DEBUG	[2014-06-11 15:46:09:606] <4991> recvmsg:
DEBUG	[2014-06-11 15:46:09:606] <4991> joincard:
DEBUG	[2014-06-11 15:46:09:606] <4991> joinexpire:
DEBUG	[2014-06-11 15:46:09:606] <4991> id_customer:
ERROR	[2014-06-11 15:46:09:614] <4991> 필수항목(mid)이 누락되었습니다.
INFO	[2014-06-11 15:46:09:614] <4991> END securepay [TX9202|필수항목(mid)이 누락되었습니다.] Laptime:[0.01sec]
INFO	[2014-06-11 15:46:09:614] <4991> ===============================================================
INFO	[2014-06-11 16:15:12:499] <8153> START INIPHP chkfake (V5034-120709)(OS:Linux2.6.32-358.11.1.el6.i686,PHP:5.2.17)
DEBUG	[2014-06-11 16:15:12:499] <8153> inipayhome:/home/clair/html/INIpay50
DEBUG	[2014-06-11 16:15:12:499] <8153> type:chkfake
DEBUG	[2014-06-11 16:15:12:499] <8153> debug:true
DEBUG	[2014-06-11 16:15:12:499] <8153> enctype:asym
DEBUG	[2014-06-11 16:15:12:499] <8153> admin:1111
DEBUG	[2014-06-11 16:15:12:499] <8153> checkopt:false
ERROR	[2014-06-11 16:15:12:509] <8153> 필수항목(mid)이 누락되었습니다.
INFO	[2014-06-11 16:15:12:509] <8153> END chkfake [TX9202|필수항목(mid)이 누락되었습니다.] Laptime:[0.01sec]
INFO	[2014-06-11 16:15:12:509] <8153> ===============================================================
INFO	[2014-06-11 16:15:13:939] <8568> START INIPHP chkfake (V5034-120709)(OS:Linux2.6.32-358.11.1.el6.i686,PHP:5.2.17)
DEBUG	[2014-06-11 16:15:13:939] <8568> inipayhome:/home/clair/html/INIpay50
DEBUG	[2014-06-11 16:15:13:939] <8568> type:chkfake
DEBUG	[2014-06-11 16:15:13:939] <8568> debug:true
DEBUG	[2014-06-11 16:15:13:939] <8568> enctype:asym
DEBUG	[2014-06-11 16:15:13:939] <8568> admin:1111
DEBUG	[2014-06-11 16:15:13:939] <8568> checkopt:false
ERROR	[2014-06-11 16:15:13:947] <8568> 필수항목(mid)이 누락되었습니다.
INFO	[2014-06-11 16:15:13:947] <8568> END chkfake [TX9202|필수항목(mid)이 누락되었습니다.] Laptime:[0.01sec]
INFO	[2014-06-11 16:15:13:947] <8568> ===============================================================
