INFO	[2014-10-22 09:25:45:805] <738> START INIPHP cancel (V5034-120709)(OS:Linux2.6.32-431.23.3.el6.x86_64,PHP:5.3.28)
DEBUG	[2014-10-22 09:25:45:805] <738> inipayhome:/www/myclair_kr/INIpay50
DEBUG	[2014-10-22 09:25:45:805] <738> type:cancel
DEBUG	[2014-10-22 09:25:45:805] <738> pgid:INIphp
DEBUG	[2014-10-22 09:25:45:805] <738> subpgip:203.238.3.10
DEBUG	[2014-10-22 09:25:45:805] <738> admin:1111
DEBUG	[2014-10-22 09:25:45:805] <738> debug:true
DEBUG	[2014-10-22 09:25:45:805] <738> uid:
DEBUG	[2014-10-22 09:25:45:805] <738> goodname:클레어 공기청정기
DEBUG	[2014-10-22 09:25:45:805] <738> currency:WON
DEBUG	[2014-10-22 09:25:45:805] <738> mid:myclairkr1
DEBUG	[2014-10-22 09:25:45:805] <738> rn:MjAxNDEwMjIwOTI1MzMzODk2NzA3Nw==

DEBUG	[2014-10-22 09:25:45:805] <738> price:160000
DEBUG	[2014-10-22 09:25:45:805] <738> enctype:
DEBUG	[2014-10-22 09:25:45:805] <738> buyername:김경록
DEBUG	[2014-10-22 09:25:45:805] <738> buyertel:010-3588-6265
DEBUG	[2014-10-22 09:25:45:805] <738> buyeremail:oceanfog1@gmail.com
DEBUG	[2014-10-22 09:25:45:805] <738> paymethod:
DEBUG	[2014-10-22 09:25:45:805] <738> encrypted:
DEBUG	[2014-10-22 09:25:45:805] <738> sessionkey:
DEBUG	[2014-10-22 09:25:45:805] <738> url:http://www.your_domain.co.kr
DEBUG	[2014-10-22 09:25:45:805] <738> cardcode:
DEBUG	[2014-10-22 09:25:45:805] <738> parentemail:
DEBUG	[2014-10-22 09:25:45:805] <738> recvname:
DEBUG	[2014-10-22 09:25:45:805] <738> recvtel:
DEBUG	[2014-10-22 09:25:45:805] <738> recvaddr:
DEBUG	[2014-10-22 09:25:45:805] <738> recvpostnum:
DEBUG	[2014-10-22 09:25:45:805] <738> recvmsg:
DEBUG	[2014-10-22 09:25:45:805] <738> joincard:
DEBUG	[2014-10-22 09:25:45:805] <738> joinexpire:
DEBUG	[2014-10-22 09:25:45:805] <738> id_customer:
DEBUG	[2014-10-22 09:25:45:805] <738> tid:
DEBUG	[2014-10-22 09:25:45:805] <738> cancelmsg:DB FAIL
ERROR	[2014-10-22 09:25:45:810] <738> 필수항목(tid)이 누락되었습니다.
INFO	[2014-10-22 09:25:45:810] <738> END cancel [TX9204|필수항목(tid)이 누락되었습니다.] Laptime:[0.006sec]
INFO	[2014-10-22 09:25:45:810] <738> ===============================================================
INFO	[2014-10-22 09:30:26:485] <14554> START INIPHP cancel (V5034-120709)(OS:Linux2.6.32-431.23.3.el6.x86_64,PHP:5.3.28)
DEBUG	[2014-10-22 09:30:26:485] <14554> inipayhome:/www/myclair_kr/INIpay50
DEBUG	[2014-10-22 09:30:26:485] <14554> type:cancel
DEBUG	[2014-10-22 09:30:26:485] <14554> pgid:INIphp
DEBUG	[2014-10-22 09:30:26:485] <14554> subpgip:203.238.3.10
DEBUG	[2014-10-22 09:30:26:485] <14554> admin:1111
DEBUG	[2014-10-22 09:30:26:485] <14554> debug:true
DEBUG	[2014-10-22 09:30:26:485] <14554> uid:
DEBUG	[2014-10-22 09:30:26:485] <14554> goodname:클레어 공기청정기
DEBUG	[2014-10-22 09:30:26:485] <14554> currency:WON
DEBUG	[2014-10-22 09:30:26:485] <14554> mid:myclairkr1
DEBUG	[2014-10-22 09:30:26:485] <14554> rn:MjAxNDEwMjIwOTI1NTgyMTUxNDIwNg==

DEBUG	[2014-10-22 09:30:26:485] <14554> price:160000
DEBUG	[2014-10-22 09:30:26:485] <14554> enctype:
DEBUG	[2014-10-22 09:30:26:485] <14554> buyername:김경록
DEBUG	[2014-10-22 09:30:26:485] <14554> buyertel:010-3588-6265
DEBUG	[2014-10-22 09:30:26:485] <14554> buyeremail:oceanfog1@gmail.com
DEBUG	[2014-10-22 09:30:26:485] <14554> paymethod:
DEBUG	[2014-10-22 09:30:26:485] <14554> encrypted:
DEBUG	[2014-10-22 09:30:26:485] <14554> sessionkey:
DEBUG	[2014-10-22 09:30:26:485] <14554> url:http://www.your_domain.co.kr
DEBUG	[2014-10-22 09:30:26:485] <14554> cardcode:
DEBUG	[2014-10-22 09:30:26:485] <14554> parentemail:
DEBUG	[2014-10-22 09:30:26:485] <14554> recvname:
DEBUG	[2014-10-22 09:30:26:485] <14554> recvtel:
DEBUG	[2014-10-22 09:30:26:485] <14554> recvaddr:
DEBUG	[2014-10-22 09:30:26:485] <14554> recvpostnum:
DEBUG	[2014-10-22 09:30:26:485] <14554> recvmsg:
DEBUG	[2014-10-22 09:30:26:485] <14554> joincard:
DEBUG	[2014-10-22 09:30:26:485] <14554> joinexpire:
DEBUG	[2014-10-22 09:30:26:485] <14554> id_customer:
DEBUG	[2014-10-22 09:30:26:485] <14554> tid:
DEBUG	[2014-10-22 09:30:26:485] <14554> cancelmsg:DB FAIL
ERROR	[2014-10-22 09:30:26:491] <14554> 필수항목(tid)이 누락되었습니다.
INFO	[2014-10-22 09:30:26:491] <14554> END cancel [TX9204|필수항목(tid)이 누락되었습니다.] Laptime:[0.006sec]
INFO	[2014-10-22 09:30:26:491] <14554> ===============================================================
INFO	[2014-10-22 09:31:32:751] <4305> START INIPHP cancel (V5034-120709)(OS:Linux2.6.32-431.23.3.el6.x86_64,PHP:5.3.28)
DEBUG	[2014-10-22 09:31:32:751] <4305> inipayhome:/www/myclair_kr/INIpay50
DEBUG	[2014-10-22 09:31:32:751] <4305> type:cancel
DEBUG	[2014-10-22 09:31:32:751] <4305> pgid:INIphpCARD
DEBUG	[2014-10-22 09:31:32:751] <4305> subpgip:203.238.3.10
DEBUG	[2014-10-22 09:31:32:751] <4305> admin:1111
DEBUG	[2014-10-22 09:31:32:751] <4305> debug:true
DEBUG	[2014-10-22 09:31:32:751] <4305> uid:
DEBUG	[2014-10-22 09:31:32:751] <4305> goodname:클레어 공기청정기
DEBUG	[2014-10-22 09:31:32:751] <4305> currency:WON
DEBUG	[2014-10-22 09:31:32:751] <4305> mid:myclairkr1
DEBUG	[2014-10-22 09:31:32:751] <4305> rn:MjAxNDEwMjIwOTMxMTg1MDk4MzI2MA==

DEBUG	[2014-10-22 09:31:32:751] <4305> price:160000
DEBUG	[2014-10-22 09:31:32:751] <4305> enctype:
DEBUG	[2014-10-22 09:31:32:751] <4305> buyername:김경록
DEBUG	[2014-10-22 09:31:32:751] <4305> buyertel:010-3588-6265
DEBUG	[2014-10-22 09:31:32:751] <4305> buyeremail:krkim@atsg.co.kr
DEBUG	[2014-10-22 09:31:32:751] <4305> paymethod:Card
DEBUG	[2014-10-22 09:31:32:751] <4305> encrypted:
DEBUG	[2014-10-22 09:31:32:751] <4305> sessionkey:
DEBUG	[2014-10-22 09:31:32:751] <4305> url:http://www.your_domain.co.kr
DEBUG	[2014-10-22 09:31:32:751] <4305> cardcode:
DEBUG	[2014-10-22 09:31:32:751] <4305> parentemail:
DEBUG	[2014-10-22 09:31:32:751] <4305> recvname:
DEBUG	[2014-10-22 09:31:32:751] <4305> recvtel:
DEBUG	[2014-10-22 09:31:32:751] <4305> recvaddr:
DEBUG	[2014-10-22 09:31:32:751] <4305> recvpostnum:
DEBUG	[2014-10-22 09:31:32:751] <4305> recvmsg:
DEBUG	[2014-10-22 09:31:32:751] <4305> joincard:
DEBUG	[2014-10-22 09:31:32:751] <4305> joinexpire:
DEBUG	[2014-10-22 09:31:32:751] <4305> id_customer:
DEBUG	[2014-10-22 09:31:32:751] <4305> tid:
DEBUG	[2014-10-22 09:31:32:751] <4305> cancelmsg:DB FAIL
ERROR	[2014-10-22 09:31:32:757] <4305> 필수항목(tid)이 누락되었습니다.
INFO	[2014-10-22 09:31:32:757] <4305> END cancel [TX9204|필수항목(tid)이 누락되었습니다.] Laptime:[0.007sec]
INFO	[2014-10-22 09:31:32:757] <4305> ===============================================================
INFO	[2014-10-22 09:44:12:29] <28322> START INIPHP cancel (V5034-120709)(OS:Linux2.6.32-431.23.3.el6.x86_64,PHP:5.3.28)
DEBUG	[2014-10-22 09:44:12:29] <28322> inipayhome:/www/myclair_kr/INIpay50
DEBUG	[2014-10-22 09:44:12:29] <28322> type:cancel
DEBUG	[2014-10-22 09:44:12:29] <28322> pgid:INIphp
DEBUG	[2014-10-22 09:44:12:29] <28322> subpgip:203.238.3.10
DEBUG	[2014-10-22 09:44:12:29] <28322> admin:1111
DEBUG	[2014-10-22 09:44:12:29] <28322> debug:true
DEBUG	[2014-10-22 09:44:12:29] <28322> uid:
DEBUG	[2014-10-22 09:44:12:29] <28322> goodname:클레어 공기청정기
DEBUG	[2014-10-22 09:44:12:29] <28322> currency:WON
DEBUG	[2014-10-22 09:44:12:29] <28322> mid:myclairkr1
DEBUG	[2014-10-22 09:44:12:29] <28322> rn:MjAxNDEwMjIwOTQzNTU0MjE1NjgwNg==

DEBUG	[2014-10-22 09:44:12:29] <28322> price:160000
DEBUG	[2014-10-22 09:44:12:29] <28322> enctype:
DEBUG	[2014-10-22 09:44:12:29] <28322> buyername:김경록
DEBUG	[2014-10-22 09:44:12:29] <28322> buyertel:010-3588-6265
DEBUG	[2014-10-22 09:44:12:29] <28322> buyeremail:krkim@atsg.co.kr
DEBUG	[2014-10-22 09:44:12:29] <28322> paymethod:
DEBUG	[2014-10-22 09:44:12:29] <28322> encrypted:
DEBUG	[2014-10-22 09:44:12:29] <28322> sessionkey:
DEBUG	[2014-10-22 09:44:12:29] <28322> url:http://www.your_domain.co.kr
DEBUG	[2014-10-22 09:44:12:29] <28322> cardcode:
DEBUG	[2014-10-22 09:44:12:29] <28322> parentemail:
DEBUG	[2014-10-22 09:44:12:29] <28322> recvname:
DEBUG	[2014-10-22 09:44:12:29] <28322> recvtel:
DEBUG	[2014-10-22 09:44:12:29] <28322> recvaddr:
DEBUG	[2014-10-22 09:44:12:29] <28322> recvpostnum:
DEBUG	[2014-10-22 09:44:12:29] <28322> recvmsg:
DEBUG	[2014-10-22 09:44:12:29] <28322> joincard:
DEBUG	[2014-10-22 09:44:12:29] <28322> joinexpire:
DEBUG	[2014-10-22 09:44:12:29] <28322> id_customer:
DEBUG	[2014-10-22 09:44:12:29] <28322> tid:
DEBUG	[2014-10-22 09:44:12:29] <28322> cancelmsg:DB FAIL
ERROR	[2014-10-22 09:44:12:34] <28322> 필수항목(tid)이 누락되었습니다.
INFO	[2014-10-22 09:44:12:34] <28322> END cancel [TX9204|필수항목(tid)이 누락되었습니다.] Laptime:[0.005sec]
INFO	[2014-10-22 09:44:12:34] <28322> ===============================================================
INFO	[2014-10-22 09:44:30:544] <26229> START INIPHP cancel (V5034-120709)(OS:Linux2.6.32-431.23.3.el6.x86_64,PHP:5.3.28)
DEBUG	[2014-10-22 09:44:30:544] <26229> inipayhome:/www/myclair_kr/INIpay50
DEBUG	[2014-10-22 09:44:30:544] <26229> type:cancel
DEBUG	[2014-10-22 09:44:30:544] <26229> pgid:INIphp
DEBUG	[2014-10-22 09:44:30:544] <26229> subpgip:203.238.3.10
DEBUG	[2014-10-22 09:44:30:544] <26229> admin:1111
DEBUG	[2014-10-22 09:44:30:544] <26229> debug:true
DEBUG	[2014-10-22 09:44:30:544] <26229> uid:
DEBUG	[2014-10-22 09:44:30:544] <26229> goodname:클레어 공기청정기
DEBUG	[2014-10-22 09:44:30:544] <26229> currency:WON
DEBUG	[2014-10-22 09:44:30:544] <26229> mid:myclairkr1
DEBUG	[2014-10-22 09:44:30:544] <26229> rn:MjAxNDEwMjIwOTQzNTU0MjE1NjgwNg==

DEBUG	[2014-10-22 09:44:30:544] <26229> price:160000
DEBUG	[2014-10-22 09:44:30:544] <26229> enctype:
DEBUG	[2014-10-22 09:44:30:544] <26229> buyername:김경록
DEBUG	[2014-10-22 09:44:30:544] <26229> buyertel:010-3588-6265
DEBUG	[2014-10-22 09:44:30:544] <26229> buyeremail:krkim@atsg.co.kr
DEBUG	[2014-10-22 09:44:30:544] <26229> paymethod:
DEBUG	[2014-10-22 09:44:30:544] <26229> encrypted:
DEBUG	[2014-10-22 09:44:30:544] <26229> sessionkey:
DEBUG	[2014-10-22 09:44:30:544] <26229> url:http://www.your_domain.co.kr
DEBUG	[2014-10-22 09:44:30:544] <26229> cardcode:
DEBUG	[2014-10-22 09:44:30:544] <26229> parentemail:
DEBUG	[2014-10-22 09:44:30:544] <26229> recvname:
DEBUG	[2014-10-22 09:44:30:544] <26229> recvtel:
DEBUG	[2014-10-22 09:44:30:544] <26229> recvaddr:
DEBUG	[2014-10-22 09:44:30:544] <26229> recvpostnum:
DEBUG	[2014-10-22 09:44:30:544] <26229> recvmsg:
DEBUG	[2014-10-22 09:44:30:544] <26229> joincard:
DEBUG	[2014-10-22 09:44:30:544] <26229> joinexpire:
DEBUG	[2014-10-22 09:44:30:544] <26229> id_customer:
DEBUG	[2014-10-22 09:44:30:544] <26229> tid:
DEBUG	[2014-10-22 09:44:30:544] <26229> cancelmsg:DB FAIL
ERROR	[2014-10-22 09:44:30:550] <26229> 필수항목(tid)이 누락되었습니다.
INFO	[2014-10-22 09:44:30:550] <26229> END cancel [TX9204|필수항목(tid)이 누락되었습니다.] Laptime:[0.006sec]
INFO	[2014-10-22 09:44:30:550] <26229> ===============================================================
INFO	[2014-10-22 09:45:16:610] <24408> START INIPHP cancel (V5034-120709)(OS:Linux2.6.32-431.23.3.el6.x86_64,PHP:5.3.28)
DEBUG	[2014-10-22 09:45:16:610] <24408> inipayhome:/www/myclair_kr/INIpay50
DEBUG	[2014-10-22 09:45:16:610] <24408> type:cancel
DEBUG	[2014-10-22 09:45:16:610] <24408> pgid:INIphpvbank
DEBUG	[2014-10-22 09:45:16:610] <24408> subpgip:203.238.3.10
DEBUG	[2014-10-22 09:45:16:610] <24408> admin:1111
DEBUG	[2014-10-22 09:45:16:610] <24408> debug:true
DEBUG	[2014-10-22 09:45:16:610] <24408> uid:
DEBUG	[2014-10-22 09:45:16:610] <24408> goodname:클레어 공기청정기
DEBUG	[2014-10-22 09:45:16:610] <24408> currency:WON
DEBUG	[2014-10-22 09:45:16:610] <24408> mid:myclairkr1
DEBUG	[2014-10-22 09:45:16:610] <24408> rn:MjAxNDEwMjIwOTQ0NDI1MTUzMzUwMA==

DEBUG	[2014-10-22 09:45:16:610] <24408> price:160000
DEBUG	[2014-10-22 09:45:16:610] <24408> enctype:
DEBUG	[2014-10-22 09:45:16:610] <24408> buyername:김경록
DEBUG	[2014-10-22 09:45:16:610] <24408> buyertel:010-3588-6265
DEBUG	[2014-10-22 09:45:16:610] <24408> buyeremail:krkim@atsg.co.kr
DEBUG	[2014-10-22 09:45:16:610] <24408> paymethod:vbank
DEBUG	[2014-10-22 09:45:16:610] <24408> encrypted:
DEBUG	[2014-10-22 09:45:16:610] <24408> sessionkey:
DEBUG	[2014-10-22 09:45:16:610] <24408> url:http://www.your_domain.co.kr
DEBUG	[2014-10-22 09:45:16:610] <24408> cardcode:
DEBUG	[2014-10-22 09:45:16:610] <24408> parentemail:
DEBUG	[2014-10-22 09:45:16:610] <24408> recvname:
DEBUG	[2014-10-22 09:45:16:610] <24408> recvtel:
DEBUG	[2014-10-22 09:45:16:610] <24408> recvaddr:
DEBUG	[2014-10-22 09:45:16:610] <24408> recvpostnum:
DEBUG	[2014-10-22 09:45:16:610] <24408> recvmsg:
DEBUG	[2014-10-22 09:45:16:610] <24408> joincard:
DEBUG	[2014-10-22 09:45:16:610] <24408> joinexpire:
DEBUG	[2014-10-22 09:45:16:610] <24408> id_customer:
DEBUG	[2014-10-22 09:45:16:610] <24408> tid:
DEBUG	[2014-10-22 09:45:16:610] <24408> cancelmsg:DB FAIL
ERROR	[2014-10-22 09:45:16:617] <24408> 필수항목(tid)이 누락되었습니다.
INFO	[2014-10-22 09:45:16:617] <24408> END cancel [TX9204|필수항목(tid)이 누락되었습니다.] Laptime:[0.008sec]
INFO	[2014-10-22 09:45:16:618] <24408> ===============================================================
INFO	[2014-10-22 09:45:42:40] <31448> START INIPHP cancel (V5034-120709)(OS:Linux2.6.32-431.23.3.el6.x86_64,PHP:5.3.28)
DEBUG	[2014-10-22 09:45:42:40] <31448> inipayhome:/www/myclair_kr/INIpay50
DEBUG	[2014-10-22 09:45:42:40] <31448> type:cancel
DEBUG	[2014-10-22 09:45:42:40] <31448> pgid:INIphpvbank
DEBUG	[2014-10-22 09:45:42:40] <31448> subpgip:203.238.3.10
DEBUG	[2014-10-22 09:45:42:40] <31448> admin:1111
DEBUG	[2014-10-22 09:45:42:40] <31448> debug:true
DEBUG	[2014-10-22 09:45:42:40] <31448> uid:
DEBUG	[2014-10-22 09:45:42:40] <31448> goodname:클레어 공기청정기
DEBUG	[2014-10-22 09:45:42:40] <31448> currency:WON
DEBUG	[2014-10-22 09:45:42:40] <31448> mid:myclairkr1
DEBUG	[2014-10-22 09:45:42:40] <31448> rn:MjAxNDEwMjIwOTQ0NDI1MTUzMzUwMA==

DEBUG	[2014-10-22 09:45:42:40] <31448> price:160000
DEBUG	[2014-10-22 09:45:42:40] <31448> enctype:
DEBUG	[2014-10-22 09:45:42:40] <31448> buyername:김경록
DEBUG	[2014-10-22 09:45:42:40] <31448> buyertel:010-3588-6265
DEBUG	[2014-10-22 09:45:42:40] <31448> buyeremail:krkim@atsg.co.kr
DEBUG	[2014-10-22 09:45:42:40] <31448> paymethod:vbank
DEBUG	[2014-10-22 09:45:42:40] <31448> encrypted:
DEBUG	[2014-10-22 09:45:42:40] <31448> sessionkey:
DEBUG	[2014-10-22 09:45:42:40] <31448> url:http://www.your_domain.co.kr
DEBUG	[2014-10-22 09:45:42:40] <31448> cardcode:
DEBUG	[2014-10-22 09:45:42:40] <31448> parentemail:
DEBUG	[2014-10-22 09:45:42:40] <31448> recvname:
DEBUG	[2014-10-22 09:45:42:40] <31448> recvtel:
DEBUG	[2014-10-22 09:45:42:40] <31448> recvaddr:
DEBUG	[2014-10-22 09:45:42:40] <31448> recvpostnum:
DEBUG	[2014-10-22 09:45:42:40] <31448> recvmsg:
DEBUG	[2014-10-22 09:45:42:40] <31448> joincard:
DEBUG	[2014-10-22 09:45:42:40] <31448> joinexpire:
DEBUG	[2014-10-22 09:45:42:40] <31448> id_customer:
DEBUG	[2014-10-22 09:45:42:40] <31448> tid:
DEBUG	[2014-10-22 09:45:42:40] <31448> cancelmsg:DB FAIL
ERROR	[2014-10-22 09:45:42:46] <31448> 필수항목(tid)이 누락되었습니다.
INFO	[2014-10-22 09:45:42:46] <31448> END cancel [TX9204|필수항목(tid)이 누락되었습니다.] Laptime:[0.006sec]
INFO	[2014-10-22 09:45:42:46] <31448> ===============================================================
INFO	[2014-10-22 09:46:00:338] <24344> START INIPHP cancel (V5034-120709)(OS:Linux2.6.32-431.23.3.el6.x86_64,PHP:5.3.28)
DEBUG	[2014-10-22 09:46:00:339] <24344> inipayhome:/www/myclair_kr/INIpay50
DEBUG	[2014-10-22 09:46:00:339] <24344> type:cancel
DEBUG	[2014-10-22 09:46:00:339] <24344> pgid:INIphp
DEBUG	[2014-10-22 09:46:00:339] <24344> subpgip:203.238.3.10
DEBUG	[2014-10-22 09:46:00:339] <24344> admin:1111
DEBUG	[2014-10-22 09:46:00:339] <24344> debug:true
DEBUG	[2014-10-22 09:46:00:339] <24344> uid:
DEBUG	[2014-10-22 09:46:00:339] <24344> goodname:클레어 공기청정기
DEBUG	[2014-10-22 09:46:00:339] <24344> currency:WON
DEBUG	[2014-10-22 09:46:00:339] <24344> mid:myclairkr1
DEBUG	[2014-10-22 09:46:00:339] <24344> rn:MjAxNDEwMjIwOTQ1NTI1MDgyNTYxMw==

DEBUG	[2014-10-22 09:46:00:339] <24344> price:160000
DEBUG	[2014-10-22 09:46:00:339] <24344> enctype:
DEBUG	[2014-10-22 09:46:00:339] <24344> buyername:김경록
DEBUG	[2014-10-22 09:46:00:339] <24344> buyertel:010-3588-6265
DEBUG	[2014-10-22 09:46:00:339] <24344> buyeremail:krkim@atsg.co.kr
DEBUG	[2014-10-22 09:46:00:339] <24344> paymethod:
DEBUG	[2014-10-22 09:46:00:339] <24344> encrypted:
DEBUG	[2014-10-22 09:46:00:339] <24344> sessionkey:
DEBUG	[2014-10-22 09:46:00:339] <24344> url:http://www.your_domain.co.kr
DEBUG	[2014-10-22 09:46:00:339] <24344> cardcode:
DEBUG	[2014-10-22 09:46:00:339] <24344> parentemail:
DEBUG	[2014-10-22 09:46:00:339] <24344> recvname:
DEBUG	[2014-10-22 09:46:00:339] <24344> recvtel:
DEBUG	[2014-10-22 09:46:00:339] <24344> recvaddr:
DEBUG	[2014-10-22 09:46:00:339] <24344> recvpostnum:
DEBUG	[2014-10-22 09:46:00:339] <24344> recvmsg:
DEBUG	[2014-10-22 09:46:00:339] <24344> joincard:
DEBUG	[2014-10-22 09:46:00:339] <24344> joinexpire:
DEBUG	[2014-10-22 09:46:00:339] <24344> id_customer:
DEBUG	[2014-10-22 09:46:00:339] <24344> tid:
DEBUG	[2014-10-22 09:46:00:339] <24344> cancelmsg:DB FAIL
ERROR	[2014-10-22 09:46:00:343] <24344> 필수항목(tid)이 누락되었습니다.
INFO	[2014-10-22 09:46:00:344] <24344> END cancel [TX9204|필수항목(tid)이 누락되었습니다.] Laptime:[0.005sec]
INFO	[2014-10-22 09:46:00:344] <24344> ===============================================================
INFO	[2014-10-22 09:47:52:536] <24344> START INIPHP cancel (V5034-120709)(OS:Linux2.6.32-431.23.3.el6.x86_64,PHP:5.3.28)
DEBUG	[2014-10-22 09:47:52:536] <24344> inipayhome:/www/myclair_kr/INIpay50
DEBUG	[2014-10-22 09:47:52:536] <24344> type:cancel
DEBUG	[2014-10-22 09:47:52:536] <24344> pgid:INIphp
DEBUG	[2014-10-22 09:47:52:536] <24344> subpgip:203.238.3.10
DEBUG	[2014-10-22 09:47:52:536] <24344> admin:1111
DEBUG	[2014-10-22 09:47:52:536] <24344> debug:true
DEBUG	[2014-10-22 09:47:52:536] <24344> uid:
DEBUG	[2014-10-22 09:47:52:536] <24344> goodname:클레어 공기청정기
DEBUG	[2014-10-22 09:47:52:536] <24344> currency:WON
DEBUG	[2014-10-22 09:47:52:536] <24344> mid:myclairkr1
DEBUG	[2014-10-22 09:47:52:536] <24344> rn:MjAxNDEwMjIwOTQ3NDEzNzY4MDkzNQ==

DEBUG	[2014-10-22 09:47:52:536] <24344> price:160000
DEBUG	[2014-10-22 09:47:52:536] <24344> enctype:
DEBUG	[2014-10-22 09:47:52:536] <24344> buyername:김경록
DEBUG	[2014-10-22 09:47:52:536] <24344> buyertel:010-3588-6265
DEBUG	[2014-10-22 09:47:52:536] <24344> buyeremail:krkim@atsg.co.kr
DEBUG	[2014-10-22 09:47:52:536] <24344> paymethod:
DEBUG	[2014-10-22 09:47:52:536] <24344> encrypted:
DEBUG	[2014-10-22 09:47:52:536] <24344> sessionkey:
DEBUG	[2014-10-22 09:47:52:536] <24344> url:http://www.your_domain.co.kr
DEBUG	[2014-10-22 09:47:52:536] <24344> cardcode:
DEBUG	[2014-10-22 09:47:52:536] <24344> parentemail:
DEBUG	[2014-10-22 09:47:52:536] <24344> recvname:
DEBUG	[2014-10-22 09:47:52:536] <24344> recvtel:
DEBUG	[2014-10-22 09:47:52:536] <24344> recvaddr:
DEBUG	[2014-10-22 09:47:52:536] <24344> recvpostnum:
DEBUG	[2014-10-22 09:47:52:536] <24344> recvmsg:
DEBUG	[2014-10-22 09:47:52:536] <24344> joincard:
DEBUG	[2014-10-22 09:47:52:536] <24344> joinexpire:
DEBUG	[2014-10-22 09:47:52:536] <24344> id_customer:
DEBUG	[2014-10-22 09:47:52:536] <24344> tid:
DEBUG	[2014-10-22 09:47:52:536] <24344> cancelmsg:DB FAIL
ERROR	[2014-10-22 09:47:52:541] <24344> 필수항목(tid)이 누락되었습니다.
INFO	[2014-10-22 09:47:52:542] <24344> END cancel [TX9204|필수항목(tid)이 누락되었습니다.] Laptime:[0.006sec]
INFO	[2014-10-22 09:47:52:542] <24344> ===============================================================
INFO	[2014-10-22 09:48:43:287] <31452> START INIPHP cancel (V5034-120709)(OS:Linux2.6.32-431.23.3.el6.x86_64,PHP:5.3.28)
DEBUG	[2014-10-22 09:48:43:287] <31452> inipayhome:/www/myclair_kr/INIpay50
DEBUG	[2014-10-22 09:48:43:287] <31452> type:cancel
DEBUG	[2014-10-22 09:48:43:287] <31452> pgid:INIphp
DEBUG	[2014-10-22 09:48:43:287] <31452> subpgip:203.238.3.10
DEBUG	[2014-10-22 09:48:43:287] <31452> admin:1111
DEBUG	[2014-10-22 09:48:43:287] <31452> debug:true
DEBUG	[2014-10-22 09:48:43:287] <31452> uid:
DEBUG	[2014-10-22 09:48:43:287] <31452> goodname:클레어 공기청정기
DEBUG	[2014-10-22 09:48:43:287] <31452> currency:WON
DEBUG	[2014-10-22 09:48:43:287] <31452> mid:myclairkr1
DEBUG	[2014-10-22 09:48:43:287] <31452> rn:MjAxNDEwMjIwOTQ4MzI5MTA4NzA1OA==

DEBUG	[2014-10-22 09:48:43:287] <31452> price:160000
DEBUG	[2014-10-22 09:48:43:287] <31452> enctype:
DEBUG	[2014-10-22 09:48:43:287] <31452> buyername:김경록
DEBUG	[2014-10-22 09:48:43:287] <31452> buyertel:010-3588-6265
DEBUG	[2014-10-22 09:48:43:287] <31452> buyeremail:krkim@atsg.co.kr
DEBUG	[2014-10-22 09:48:43:287] <31452> paymethod:
DEBUG	[2014-10-22 09:48:43:287] <31452> encrypted:
DEBUG	[2014-10-22 09:48:43:287] <31452> sessionkey:
DEBUG	[2014-10-22 09:48:43:287] <31452> url:http://www.your_domain.co.kr
DEBUG	[2014-10-22 09:48:43:287] <31452> cardcode:
DEBUG	[2014-10-22 09:48:43:287] <31452> parentemail:
DEBUG	[2014-10-22 09:48:43:287] <31452> recvname:
DEBUG	[2014-10-22 09:48:43:287] <31452> recvtel:
DEBUG	[2014-10-22 09:48:43:287] <31452> recvaddr:
DEBUG	[2014-10-22 09:48:43:287] <31452> recvpostnum:
DEBUG	[2014-10-22 09:48:43:287] <31452> recvmsg:
DEBUG	[2014-10-22 09:48:43:287] <31452> joincard:
DEBUG	[2014-10-22 09:48:43:287] <31452> joinexpire:
DEBUG	[2014-10-22 09:48:43:287] <31452> id_customer:
DEBUG	[2014-10-22 09:48:43:287] <31452> tid:
DEBUG	[2014-10-22 09:48:43:287] <31452> cancelmsg:DB FAIL
ERROR	[2014-10-22 09:48:43:293] <31452> 필수항목(tid)이 누락되었습니다.
INFO	[2014-10-22 09:48:43:293] <31452> END cancel [TX9204|필수항목(tid)이 누락되었습니다.] Laptime:[0.006sec]
INFO	[2014-10-22 09:48:43:293] <31452> ===============================================================
INFO	[2014-10-22 09:49:51:365] <33655> START INIPHP cancel (V5034-120709)(OS:Linux2.6.32-431.23.3.el6.x86_64,PHP:5.3.28)
DEBUG	[2014-10-22 09:49:51:365] <33655> inipayhome:/www/myclair_kr/INIpay50
DEBUG	[2014-10-22 09:49:51:365] <33655> type:cancel
DEBUG	[2014-10-22 09:49:51:365] <33655> pgid:INIphp
DEBUG	[2014-10-22 09:49:51:365] <33655> subpgip:203.238.3.10
DEBUG	[2014-10-22 09:49:51:365] <33655> admin:1111
DEBUG	[2014-10-22 09:49:51:365] <33655> debug:true
DEBUG	[2014-10-22 09:49:51:365] <33655> uid:
DEBUG	[2014-10-22 09:49:51:365] <33655> goodname:클레어 공기청정기
DEBUG	[2014-10-22 09:49:51:365] <33655> currency:WON
DEBUG	[2014-10-22 09:49:51:365] <33655> mid:myclairkr1
DEBUG	[2014-10-22 09:49:51:365] <33655> rn:MjAxNDEwMjIwOTQ5MzQwMzEyMjQ4MQ==

DEBUG	[2014-10-22 09:49:51:365] <33655> price:160000
DEBUG	[2014-10-22 09:49:51:365] <33655> enctype:
DEBUG	[2014-10-22 09:49:51:365] <33655> buyername:김경록
DEBUG	[2014-10-22 09:49:51:365] <33655> buyertel:010-3588-6265
DEBUG	[2014-10-22 09:49:51:365] <33655> buyeremail:krkim@atsg.co.kr
DEBUG	[2014-10-22 09:49:51:365] <33655> paymethod:
DEBUG	[2014-10-22 09:49:51:365] <33655> encrypted:
DEBUG	[2014-10-22 09:49:51:365] <33655> sessionkey:
DEBUG	[2014-10-22 09:49:51:365] <33655> url:http://www.your_domain.co.kr
DEBUG	[2014-10-22 09:49:51:365] <33655> cardcode:
DEBUG	[2014-10-22 09:49:51:365] <33655> parentemail:
DEBUG	[2014-10-22 09:49:51:365] <33655> recvname:
DEBUG	[2014-10-22 09:49:51:365] <33655> recvtel:
DEBUG	[2014-10-22 09:49:51:365] <33655> recvaddr:
DEBUG	[2014-10-22 09:49:51:365] <33655> recvpostnum:
DEBUG	[2014-10-22 09:49:51:365] <33655> recvmsg:
DEBUG	[2014-10-22 09:49:51:365] <33655> joincard:
DEBUG	[2014-10-22 09:49:51:365] <33655> joinexpire:
DEBUG	[2014-10-22 09:49:51:365] <33655> id_customer:
DEBUG	[2014-10-22 09:49:51:365] <33655> tid:
DEBUG	[2014-10-22 09:49:51:365] <33655> cancelmsg:DB FAIL
ERROR	[2014-10-22 09:49:51:371] <33655> 필수항목(tid)이 누락되었습니다.
INFO	[2014-10-22 09:49:51:371] <33655> END cancel [TX9204|필수항목(tid)이 누락되었습니다.] Laptime:[0.006sec]
INFO	[2014-10-22 09:49:51:371] <33655> ===============================================================
INFO	[2014-10-22 09:50:45:765] <34447> START INIPHP cancel (V5034-120709)(OS:Linux2.6.32-431.23.3.el6.x86_64,PHP:5.3.28)
DEBUG	[2014-10-22 09:50:45:766] <34447> inipayhome:/www/myclair_kr/INIpay50
DEBUG	[2014-10-22 09:50:45:766] <34447> type:cancel
DEBUG	[2014-10-22 09:50:45:766] <34447> pgid:INIphp
DEBUG	[2014-10-22 09:50:45:766] <34447> subpgip:203.238.3.10
DEBUG	[2014-10-22 09:50:45:766] <34447> admin:1111
DEBUG	[2014-10-22 09:50:45:766] <34447> debug:true
DEBUG	[2014-10-22 09:50:45:766] <34447> uid:
DEBUG	[2014-10-22 09:50:45:766] <34447> goodname:클레어 공기청정기
DEBUG	[2014-10-22 09:50:45:766] <34447> currency:WON
DEBUG	[2014-10-22 09:50:45:766] <34447> mid:myclairkr1
DEBUG	[2014-10-22 09:50:45:766] <34447> rn:MjAxNDEwMjIwOTUwMjQ1OTMxMzAzNw==

DEBUG	[2014-10-22 09:50:45:766] <34447> price:160000
DEBUG	[2014-10-22 09:50:45:766] <34447> enctype:
DEBUG	[2014-10-22 09:50:45:766] <34447> buyername:김경록
DEBUG	[2014-10-22 09:50:45:766] <34447> buyertel:010-3588-6265
DEBUG	[2014-10-22 09:50:45:766] <34447> buyeremail:krkim@atsg.co.kr
DEBUG	[2014-10-22 09:50:45:766] <34447> paymethod:
DEBUG	[2014-10-22 09:50:45:766] <34447> encrypted:
DEBUG	[2014-10-22 09:50:45:766] <34447> sessionkey:
DEBUG	[2014-10-22 09:50:45:766] <34447> url:http://www.your_domain.co.kr
DEBUG	[2014-10-22 09:50:45:766] <34447> cardcode:
DEBUG	[2014-10-22 09:50:45:766] <34447> parentemail:
DEBUG	[2014-10-22 09:50:45:766] <34447> recvname:
DEBUG	[2014-10-22 09:50:45:766] <34447> recvtel:
DEBUG	[2014-10-22 09:50:45:766] <34447> recvaddr:
DEBUG	[2014-10-22 09:50:45:766] <34447> recvpostnum:
DEBUG	[2014-10-22 09:50:45:766] <34447> recvmsg:
DEBUG	[2014-10-22 09:50:45:766] <34447> joincard:
DEBUG	[2014-10-22 09:50:45:766] <34447> joinexpire:
DEBUG	[2014-10-22 09:50:45:766] <34447> id_customer:
DEBUG	[2014-10-22 09:50:45:766] <34447> tid:
DEBUG	[2014-10-22 09:50:45:766] <34447> cancelmsg:DB FAIL
ERROR	[2014-10-22 09:50:45:771] <34447> 필수항목(tid)이 누락되었습니다.
INFO	[2014-10-22 09:50:45:771] <34447> END cancel [TX9204|필수항목(tid)이 누락되었습니다.] Laptime:[0.006sec]
INFO	[2014-10-22 09:50:45:771] <34447> ===============================================================
INFO	[2014-10-22 09:51:16:261] <34651> START INIPHP cancel (V5034-120709)(OS:Linux2.6.32-431.23.3.el6.x86_64,PHP:5.3.28)
DEBUG	[2014-10-22 09:51:16:261] <34651> inipayhome:/www/myclair_kr/INIpay50
DEBUG	[2014-10-22 09:51:16:261] <34651> type:cancel
DEBUG	[2014-10-22 09:51:16:261] <34651> pgid:INIphp
DEBUG	[2014-10-22 09:51:16:261] <34651> subpgip:203.238.3.10
DEBUG	[2014-10-22 09:51:16:261] <34651> admin:1111
DEBUG	[2014-10-22 09:51:16:261] <34651> debug:true
DEBUG	[2014-10-22 09:51:16:261] <34651> uid:
DEBUG	[2014-10-22 09:51:16:261] <34651> goodname:클레어 공기청정기
DEBUG	[2014-10-22 09:51:16:261] <34651> currency:WON
DEBUG	[2014-10-22 09:51:16:261] <34651> mid:myclairkr1
DEBUG	[2014-10-22 09:51:16:261] <34651> rn:MjAxNDEwMjIwOTUwNTgzNDAxNjg1OA==

DEBUG	[2014-10-22 09:51:16:261] <34651> price:160000
DEBUG	[2014-10-22 09:51:16:261] <34651> enctype:
DEBUG	[2014-10-22 09:51:16:261] <34651> buyername:김경록
DEBUG	[2014-10-22 09:51:16:261] <34651> buyertel:010-3588-6265
DEBUG	[2014-10-22 09:51:16:261] <34651> buyeremail:krkim@atsg.co.kr
DEBUG	[2014-10-22 09:51:16:261] <34651> paymethod:
DEBUG	[2014-10-22 09:51:16:261] <34651> encrypted:
DEBUG	[2014-10-22 09:51:16:261] <34651> sessionkey:
DEBUG	[2014-10-22 09:51:16:261] <34651> url:http://www.your_domain.co.kr
DEBUG	[2014-10-22 09:51:16:261] <34651> cardcode:
DEBUG	[2014-10-22 09:51:16:261] <34651> parentemail:
DEBUG	[2014-10-22 09:51:16:261] <34651> recvname:
DEBUG	[2014-10-22 09:51:16:261] <34651> recvtel:
DEBUG	[2014-10-22 09:51:16:261] <34651> recvaddr:
DEBUG	[2014-10-22 09:51:16:261] <34651> recvpostnum:
DEBUG	[2014-10-22 09:51:16:261] <34651> recvmsg:
DEBUG	[2014-10-22 09:51:16:261] <34651> joincard:
DEBUG	[2014-10-22 09:51:16:261] <34651> joinexpire:
DEBUG	[2014-10-22 09:51:16:261] <34651> id_customer:
DEBUG	[2014-10-22 09:51:16:261] <34651> tid:
DEBUG	[2014-10-22 09:51:16:261] <34651> cancelmsg:DB FAIL
ERROR	[2014-10-22 09:51:16:267] <34651> 필수항목(tid)이 누락되었습니다.
INFO	[2014-10-22 09:51:16:268] <34651> END cancel [TX9204|필수항목(tid)이 누락되었습니다.] Laptime:[0.006sec]
INFO	[2014-10-22 09:51:16:268] <34651> ===============================================================
INFO	[2014-10-22 09:52:03:611] <34447> START INIPHP cancel (V5034-120709)(OS:Linux2.6.32-431.23.3.el6.x86_64,PHP:5.3.28)
DEBUG	[2014-10-22 09:52:03:611] <34447> inipayhome:/www/myclair_kr/INIpay50
DEBUG	[2014-10-22 09:52:03:611] <34447> type:cancel
DEBUG	[2014-10-22 09:52:03:611] <34447> pgid:INIphpvbank
DEBUG	[2014-10-22 09:52:03:611] <34447> subpgip:203.238.3.10
DEBUG	[2014-10-22 09:52:03:611] <34447> admin:1111
DEBUG	[2014-10-22 09:52:03:611] <34447> debug:true
DEBUG	[2014-10-22 09:52:03:611] <34447> uid:
DEBUG	[2014-10-22 09:52:03:611] <34447> goodname:클레어 공기청정기
DEBUG	[2014-10-22 09:52:03:611] <34447> currency:WON
DEBUG	[2014-10-22 09:52:03:611] <34447> mid:myclairkr1
DEBUG	[2014-10-22 09:52:03:611] <34447> rn:MjAxNDEwMjIwOTUxMzUyMzQ1Nzc4Nw==

DEBUG	[2014-10-22 09:52:03:611] <34447> price:160000
DEBUG	[2014-10-22 09:52:03:611] <34447> enctype:
DEBUG	[2014-10-22 09:52:03:611] <34447> buyername:김경록
DEBUG	[2014-10-22 09:52:03:611] <34447> buyertel:010-3588-6265
DEBUG	[2014-10-22 09:52:03:611] <34447> buyeremail:krkim@atsg.co.kr
DEBUG	[2014-10-22 09:52:03:611] <34447> paymethod:vbank
DEBUG	[2014-10-22 09:52:03:611] <34447> encrypted:
DEBUG	[2014-10-22 09:52:03:611] <34447> sessionkey:
DEBUG	[2014-10-22 09:52:03:611] <34447> url:http://www.your_domain.co.kr
DEBUG	[2014-10-22 09:52:03:611] <34447> cardcode:
DEBUG	[2014-10-22 09:52:03:611] <34447> parentemail:
DEBUG	[2014-10-22 09:52:03:611] <34447> recvname:
DEBUG	[2014-10-22 09:52:03:611] <34447> recvtel:
DEBUG	[2014-10-22 09:52:03:611] <34447> recvaddr:
DEBUG	[2014-10-22 09:52:03:611] <34447> recvpostnum:
DEBUG	[2014-10-22 09:52:03:611] <34447> recvmsg:
DEBUG	[2014-10-22 09:52:03:611] <34447> joincard:
DEBUG	[2014-10-22 09:52:03:611] <34447> joinexpire:
DEBUG	[2014-10-22 09:52:03:611] <34447> id_customer:
DEBUG	[2014-10-22 09:52:03:611] <34447> tid:
DEBUG	[2014-10-22 09:52:03:611] <34447> cancelmsg:DB FAIL
ERROR	[2014-10-22 09:52:03:618] <34447> 필수항목(tid)이 누락되었습니다.
INFO	[2014-10-22 09:52:03:618] <34447> END cancel [TX9204|필수항목(tid)이 누락되었습니다.] Laptime:[0.007sec]
INFO	[2014-10-22 09:52:03:618] <34447> ===============================================================
INFO	[2014-10-22 09:54:34:498] <38448> START INIPHP cancel (V5034-120709)(OS:Linux2.6.32-431.23.3.el6.x86_64,PHP:5.3.28)
DEBUG	[2014-10-22 09:54:34:498] <38448> inipayhome:/www/myclair_kr/INIpay50
DEBUG	[2014-10-22 09:54:34:498] <38448> type:cancel
DEBUG	[2014-10-22 09:54:34:498] <38448> pgid:INIphp
DEBUG	[2014-10-22 09:54:34:498] <38448> subpgip:203.238.3.10
DEBUG	[2014-10-22 09:54:34:498] <38448> admin:1111
DEBUG	[2014-10-22 09:54:34:498] <38448> debug:true
DEBUG	[2014-10-22 09:54:34:498] <38448> uid:
DEBUG	[2014-10-22 09:54:34:498] <38448> goodname:클레어 공기청정기
DEBUG	[2014-10-22 09:54:34:498] <38448> currency:WON
DEBUG	[2014-10-22 09:54:34:498] <38448> mid:myclairkr1
DEBUG	[2014-10-22 09:54:34:498] <38448> rn:MjAxNDEwMjIwOTU0MjY0MTI5OTYwNQ==

DEBUG	[2014-10-22 09:54:34:498] <38448> price:160000
DEBUG	[2014-10-22 09:54:34:498] <38448> enctype:
DEBUG	[2014-10-22 09:54:34:498] <38448> buyername:김경록
DEBUG	[2014-10-22 09:54:34:498] <38448> buyertel:010-3588-6265
DEBUG	[2014-10-22 09:54:34:498] <38448> buyeremail:krkim@atsg.co.kr
DEBUG	[2014-10-22 09:54:34:498] <38448> paymethod:
DEBUG	[2014-10-22 09:54:34:498] <38448> encrypted:
DEBUG	[2014-10-22 09:54:34:498] <38448> sessionkey:
DEBUG	[2014-10-22 09:54:34:498] <38448> url:http://www.your_domain.co.kr
DEBUG	[2014-10-22 09:54:34:498] <38448> cardcode:
DEBUG	[2014-10-22 09:54:34:498] <38448> parentemail:
DEBUG	[2014-10-22 09:54:34:498] <38448> recvname:
DEBUG	[2014-10-22 09:54:34:498] <38448> recvtel:
DEBUG	[2014-10-22 09:54:34:498] <38448> recvaddr:
DEBUG	[2014-10-22 09:54:34:498] <38448> recvpostnum:
DEBUG	[2014-10-22 09:54:34:498] <38448> recvmsg:
DEBUG	[2014-10-22 09:54:34:498] <38448> joincard:
DEBUG	[2014-10-22 09:54:34:498] <38448> joinexpire:
DEBUG	[2014-10-22 09:54:34:498] <38448> id_customer:
DEBUG	[2014-10-22 09:54:34:498] <38448> tid:
DEBUG	[2014-10-22 09:54:34:498] <38448> cancelmsg:DB FAIL
ERROR	[2014-10-22 09:54:34:503] <38448> 필수항목(tid)이 누락되었습니다.
INFO	[2014-10-22 09:54:34:503] <38448> END cancel [TX9204|필수항목(tid)이 누락되었습니다.] Laptime:[0.005sec]
INFO	[2014-10-22 09:54:34:503] <38448> ===============================================================
INFO	[2014-10-22 10:04:25:822] <40350> START INIPHP cancel (V5034-120709)(OS:Linux2.6.32-431.23.3.el6.x86_64,PHP:5.3.28)
DEBUG	[2014-10-22 10:04:25:822] <40350> inipayhome:/www/myclair_kr/INIpay50
DEBUG	[2014-10-22 10:04:25:822] <40350> type:cancel
DEBUG	[2014-10-22 10:04:25:822] <40350> pgid:INIphp
DEBUG	[2014-10-22 10:04:25:822] <40350> subpgip:203.238.3.10
DEBUG	[2014-10-22 10:04:25:822] <40350> admin:1111
DEBUG	[2014-10-22 10:04:25:822] <40350> debug:true
DEBUG	[2014-10-22 10:04:25:822] <40350> uid:
DEBUG	[2014-10-22 10:04:25:822] <40350> goodname:클레어 공기청정기
DEBUG	[2014-10-22 10:04:25:822] <40350> currency:WON
DEBUG	[2014-10-22 10:04:25:822] <40350> mid:myclairkr1
DEBUG	[2014-10-22 10:04:25:822] <40350> rn:MjAxNDEwMjIxMDA0MTYzMTkzNjYzOA==

DEBUG	[2014-10-22 10:04:25:822] <40350> price:160000
DEBUG	[2014-10-22 10:04:25:822] <40350> enctype:
DEBUG	[2014-10-22 10:04:25:822] <40350> buyername:김경록
DEBUG	[2014-10-22 10:04:25:822] <40350> buyertel:010-3588-6265
DEBUG	[2014-10-22 10:04:25:822] <40350> buyeremail:krkim@atsg.co.kr
DEBUG	[2014-10-22 10:04:25:822] <40350> paymethod:
DEBUG	[2014-10-22 10:04:25:822] <40350> encrypted:
DEBUG	[2014-10-22 10:04:25:822] <40350> sessionkey:
DEBUG	[2014-10-22 10:04:25:822] <40350> url:http://www.your_domain.co.kr
DEBUG	[2014-10-22 10:04:25:822] <40350> cardcode:
DEBUG	[2014-10-22 10:04:25:822] <40350> parentemail:
DEBUG	[2014-10-22 10:04:25:822] <40350> recvname:
DEBUG	[2014-10-22 10:04:25:822] <40350> recvtel:
DEBUG	[2014-10-22 10:04:25:822] <40350> recvaddr:
DEBUG	[2014-10-22 10:04:25:822] <40350> recvpostnum:
DEBUG	[2014-10-22 10:04:25:822] <40350> recvmsg:
DEBUG	[2014-10-22 10:04:25:822] <40350> joincard:
DEBUG	[2014-10-22 10:04:25:822] <40350> joinexpire:
DEBUG	[2014-10-22 10:04:25:822] <40350> id_customer:
DEBUG	[2014-10-22 10:04:25:822] <40350> tid:
DEBUG	[2014-10-22 10:04:25:822] <40350> cancelmsg:DB FAIL
ERROR	[2014-10-22 10:04:25:828] <40350> 필수항목(tid)이 누락되었습니다.
INFO	[2014-10-22 10:04:25:828] <40350> END cancel [TX9204|필수항목(tid)이 누락되었습니다.] Laptime:[0.006sec]
INFO	[2014-10-22 10:04:25:828] <40350> ===============================================================
