2002.03.27 09:43 B D:\Documents and Settings\kimsunwoo\My Documents\work\새게시판(첨부있음)\icon\answer.gif <-- 신아일보 /bbs/bbs4/icon answer.gif
2002.03.27 09:43 B D:\Documents and Settings\kimsunwoo\My Documents\work\새게시판(첨부있음)\icon\bbsbg.gif <-- 신아일보 /bbs/bbs4/icon bbsbg.gif
2002.03.27 09:43 B D:\Documents and Settings\kimsunwoo\My Documents\work\새게시판(첨부있음)\icon\bbsbg2.gif <-- 신아일보 /bbs/bbs4/icon bbsbg2.gif
2002.03.27 09:43 B D:\Documents and Settings\kimsunwoo\My Documents\work\새게시판(첨부있음)\icon\bbsdot.gif <-- 신아일보 /bbs/bbs4/icon bbsdot.gif
2002.03.27 09:43 B D:\Documents and Settings\kimsunwoo\My Documents\work\새게시판(첨부있음)\icon\data.gif <-- 신아일보 /bbs/bbs4/icon data.gif
2002.03.27 09:43 B D:\Documents and Settings\kimsunwoo\My Documents\work\새게시판(첨부있음)\icon\date.gif <-- 신아일보 /bbs/bbs4/icon date.gif
2002.03.27 09:43 B D:\Documents and Settings\kimsunwoo\My Documents\work\새게시판(첨부있음)\icon\edit.gif <-- 신아일보 /bbs/bbs4/icon edit.gif
2002.03.27 09:43 B D:\Documents and Settings\kimsunwoo\My Documents\work\새게시판(첨부있음)\icon\fix.gif <-- 신아일보 /bbs/bbs4/icon fix.gif
2002.03.27 09:43 B D:\Documents and Settings\kimsunwoo\My Documents\work\새게시판(첨부있음)\icon\icon_03.gif <-- 신아일보 /bbs/bbs4/icon icon_03.gif
2002.03.27 09:43 B D:\Documents and Settings\kimsunwoo\My Documents\work\새게시판(첨부있음)\icon\inquiry.gif <-- 신아일보 /bbs/bbs4/icon inquiry.gif
2002.03.27 09:43 B D:\Documents and Settings\kimsunwoo\My Documents\work\새게시판(첨부있음)\icon\list.gif <-- 신아일보 /bbs/bbs4/icon list.gif
2002.03.27 09:43 B D:\Documents and Settings\kimsunwoo\My Documents\work\새게시판(첨부있음)\icon\name.gif <-- 신아일보 /bbs/bbs4/icon name.gif
2002.03.27 09:43 B D:\Documents and Settings\kimsunwoo\My Documents\work\새게시판(첨부있음)\icon\read.gif <-- 신아일보 /bbs/bbs4/icon read.gif
2002.03.27 09:43 B D:\Documents and Settings\kimsunwoo\My Documents\work\새게시판(첨부있음)\icon\read2.gif <-- 신아일보 /bbs/bbs4/icon read2.gif
2002.03.27 09:43 B D:\Documents and Settings\kimsunwoo\My Documents\work\새게시판(첨부있음)\icon\subject.gif <-- 신아일보 /bbs/bbs4/icon subject.gif
2002.03.27 09:43 B D:\Documents and Settings\kimsunwoo\My Documents\work\새게시판(첨부있음)\icon\write.gif <-- 신아일보 /bbs/bbs4/icon write.gif
2002.03.27 09:43 B D:\Documents and Settings\kimsunwoo\My Documents\work\새게시판(첨부있음)\icon\write2.gif <-- 신아일보 /bbs/bbs4/icon write2.gif
2002.03.28 11:47 B D:\Documents and Settings\kimsunwoo\My Documents\work\새게시판(첨부있음)\icon\answer.gif --> ngotv.net /bbs1/icon answer.gif
2002.03.28 11:47 B D:\Documents and Settings\kimsunwoo\My Documents\work\새게시판(첨부있음)\icon\bbsbg.gif --> ngotv.net /bbs1/icon bbsbg.gif
2002.03.28 11:47 B D:\Documents and Settings\kimsunwoo\My Documents\work\새게시판(첨부있음)\icon\bbsbg2.gif --> ngotv.net /bbs1/icon bbsbg2.gif
2002.03.28 11:47 B D:\Documents and Settings\kimsunwoo\My Documents\work\새게시판(첨부있음)\icon\bbsdot.gif --> ngotv.net /bbs1/icon bbsdot.gif
2002.03.28 11:47 B D:\Documents and Settings\kimsunwoo\My Documents\work\새게시판(첨부있음)\icon\data.gif --> ngotv.net /bbs1/icon data.gif
2002.03.28 11:47 B D:\Documents and Settings\kimsunwoo\My Documents\work\새게시판(첨부있음)\icon\date.gif --> ngotv.net /bbs1/icon date.gif
2002.03.28 11:47 B D:\Documents and Settings\kimsunwoo\My Documents\work\새게시판(첨부있음)\icon\edit.gif --> ngotv.net /bbs1/icon edit.gif
2002.03.28 11:47 B D:\Documents and Settings\kimsunwoo\My Documents\work\새게시판(첨부있음)\icon\fix.gif --> ngotv.net /bbs1/icon fix.gif
2002.03.28 11:47 B D:\Documents and Settings\kimsunwoo\My Documents\work\새게시판(첨부있음)\icon\icon_03.gif --> ngotv.net /bbs1/icon icon_03.gif
2002.03.28 11:47 B D:\Documents and Settings\kimsunwoo\My Documents\work\새게시판(첨부있음)\icon\inquiry.gif --> ngotv.net /bbs1/icon inquiry.gif
2002.03.28 11:47 B D:\Documents and Settings\kimsunwoo\My Documents\work\새게시판(첨부있음)\icon\list.gif --> ngotv.net /bbs1/icon list.gif
2002.03.28 11:47 B D:\Documents and Settings\kimsunwoo\My Documents\work\새게시판(첨부있음)\icon\name.gif --> ngotv.net /bbs1/icon name.gif
2002.03.28 11:47 B D:\Documents and Settings\kimsunwoo\My Documents\work\새게시판(첨부있음)\icon\read.gif --> ngotv.net /bbs1/icon read.gif
2002.03.28 11:47 B D:\Documents and Settings\kimsunwoo\My Documents\work\새게시판(첨부있음)\icon\read2.gif --> ngotv.net /bbs1/icon read2.gif
2002.03.28 11:47 B D:\Documents and Settings\kimsunwoo\My Documents\work\새게시판(첨부있음)\icon\subject.gif --> ngotv.net /bbs1/icon subject.gif
2002.03.28 11:47 B D:\Documents and Settings\kimsunwoo\My Documents\work\새게시판(첨부있음)\icon\write.gif --> ngotv.net /bbs1/icon write.gif
2002.03.28 11:47 B D:\Documents and Settings\kimsunwoo\My Documents\work\새게시판(첨부있음)\icon\write2.gif --> ngotv.net /bbs1/icon write2.gif
2002.03.28 11:47 B D:\Documents and Settings\kimsunwoo\My Documents\work\새게시판(첨부있음)\icon\WS_FTP.LOG --> ngotv.net /bbs1/icon WS_FTP.LOG
2002.03.28 11:57 B D:\Documents and Settings\kimsunwoo\My Documents\work\새게시판(첨부있음)\icon\answer.gif --> ngotv.net /bbs1/icon answer.gif
2002.03.28 11:57 B D:\Documents and Settings\kimsunwoo\My Documents\work\새게시판(첨부있음)\icon\bbsbg.gif --> ngotv.net /bbs1/icon bbsbg.gif
2002.03.28 11:57 B D:\Documents and Settings\kimsunwoo\My Documents\work\새게시판(첨부있음)\icon\bbsbg2.gif --> ngotv.net /bbs1/icon bbsbg2.gif
2002.03.28 11:57 B D:\Documents and Settings\kimsunwoo\My Documents\work\새게시판(첨부있음)\icon\bbsdot.gif --> ngotv.net /bbs1/icon bbsdot.gif
2002.03.28 11:57 B D:\Documents and Settings\kimsunwoo\My Documents\work\새게시판(첨부있음)\icon\data.gif --> ngotv.net /bbs1/icon data.gif
2002.03.28 11:57 B D:\Documents and Settings\kimsunwoo\My Documents\work\새게시판(첨부있음)\icon\date.gif --> ngotv.net /bbs1/icon date.gif
2002.03.28 11:57 B D:\Documents and Settings\kimsunwoo\My Documents\work\새게시판(첨부있음)\icon\edit.gif --> ngotv.net /bbs1/icon edit.gif
2002.03.28 11:57 B D:\Documents and Settings\kimsunwoo\My Documents\work\새게시판(첨부있음)\icon\fix.gif --> ngotv.net /bbs1/icon fix.gif
2002.03.28 11:57 B D:\Documents and Settings\kimsunwoo\My Documents\work\새게시판(첨부있음)\icon\icon_03.gif --> ngotv.net /bbs1/icon icon_03.gif
2002.03.28 11:57 B D:\Documents and Settings\kimsunwoo\My Documents\work\새게시판(첨부있음)\icon\inquiry.gif --> ngotv.net /bbs1/icon inquiry.gif
2002.03.28 11:57 B D:\Documents and Settings\kimsunwoo\My Documents\work\새게시판(첨부있음)\icon\list.gif --> ngotv.net /bbs1/icon list.gif
2002.03.28 11:57 B D:\Documents and Settings\kimsunwoo\My Documents\work\새게시판(첨부있음)\icon\name.gif --> ngotv.net /bbs1/icon name.gif
2002.03.28 11:57 B D:\Documents and Settings\kimsunwoo\My Documents\work\새게시판(첨부있음)\icon\read.gif --> ngotv.net /bbs1/icon read.gif
2002.03.28 11:57 B D:\Documents and Settings\kimsunwoo\My Documents\work\새게시판(첨부있음)\icon\read2.gif --> ngotv.net /bbs1/icon read2.gif
2002.03.28 11:57 B D:\Documents and Settings\kimsunwoo\My Documents\work\새게시판(첨부있음)\icon\subject.gif --> ngotv.net /bbs1/icon subject.gif
2002.03.28 11:57 B D:\Documents and Settings\kimsunwoo\My Documents\work\새게시판(첨부있음)\icon\write.gif --> ngotv.net /bbs1/icon write.gif
2002.03.28 11:57 B D:\Documents and Settings\kimsunwoo\My Documents\work\새게시판(첨부있음)\icon\write2.gif --> ngotv.net /bbs1/icon write2.gif
